<?xml version="1.0" encoding="utf-8"?>
<!-- Generator: Adobe Illustrator 21.1.0, SVG Export Plug-In . SVG Version: 6.00 Build 0)  -->
<svg version="1.1" id="Calque_1" xmlns="http://www.w3.org/2000/svg" xmlns:xlink="http://www.w3.org/1999/xlink" x="0px" y="0px"
	 viewBox="0 0 85 15.6" style="enable-background:new 0 0 85 15.6;" xml:space="preserve">
<style type="text/css">
	.st0{fill:#FFFFFF;}
</style>
<g id="XMLID_27_">
	<path id="XMLID_470_" class="st0" d="M17.1,6.6l-0.8,0.8L9,14.7c-0.2,0.2-0.4,0.2-0.7,0l-1.4-1.4c-0.2-0.2-0.2-0.5,0-0.7l6-6H17.1z
		"/>
	<path id="XMLID_469_" class="st0" d="M17.1,6.6l3.3,3.3c0.2,0.2,0.2,0.5,0,0.7L19,11.9c-0.2,0.2-0.5,0.2-0.6,0L13,6.6H17.1z"/>
	<path id="XMLID_468_" class="st0" d="M6.2,8.1L7,7.3l7.2-7.2c0.2-0.2,0.5-0.2,0.7,0l1.4,1.4c0.2,0.2,0.2,0.5,0,0.7L10.5,8L6.2,8.1z
		"/>
	<path id="XMLID_467_" class="st0" d="M6.2,8.1L3,4.8C2.8,4.6,2.8,4.3,3,4.1l1.4-1.4c0.2-0.2,0.5-0.2,0.6,0l5.4,5.4L6.2,8.1z"/>
	<g id="Opquast">
		<path id="XMLID_464_" class="st0" d="M27.5,12.1c-0.7,0-1.4-0.1-1.9-0.4c-0.5-0.2-1-0.6-1.4-1s-0.6-0.9-0.8-1.5
			c-0.2-0.6-0.3-1.2-0.3-1.9s0.1-1.3,0.3-1.9c0.2-0.6,0.4-1.1,0.8-1.5s0.8-0.8,1.4-1c0.5-0.2,1.2-0.4,1.9-0.4c0.7,0,1.4,0.1,1.9,0.4
			c0.5,0.2,1,0.6,1.4,1s0.6,0.9,0.8,1.5c0.2,0.6,0.3,1.2,0.3,1.9s-0.1,1.3-0.3,1.9c-0.2,0.6-0.4,1.1-0.8,1.5s-0.8,0.8-1.4,1
			C28.9,11.9,28.2,12.1,27.5,12.1z M27.5,10.7c0.8,0,1.5-0.3,1.9-0.9S30,8.4,30,7.4S29.8,5.5,29.4,5c-0.4-0.6-1-0.9-1.9-0.9
			c-0.8,0-1.5,0.3-1.8,0.9c-0.4,0.6-0.6,1.4-0.6,2.4s0.2,1.9,0.6,2.4C26,10.3,26.7,10.7,27.5,10.7z"/>
		<path id="XMLID_461_" class="st0" d="M33,2.8c0.1,0,0.2,0,0.4-0.1c0.1,0,0.3,0,0.4,0c0.1,0,0.2,0,0.4,0c0.1,0,0.3,0,0.4,0.1
			c0,0,0,0.1,0,0.2s0,0.3,0.1,0.4c0,0.1,0,0.3,0.1,0.4c0,0.1,0,0.2,0,0.2c0.1-0.2,0.3-0.4,0.4-0.5c0.2-0.2,0.4-0.3,0.6-0.5
			C36,3,36.3,2.8,36.6,2.8c0.3-0.1,0.6-0.1,1-0.1c0.5,0,1.1,0.1,1.5,0.3c0.5,0.2,0.9,0.4,1.2,0.8s0.6,0.8,0.8,1.4s0.3,1.2,0.3,2
			c0,1.5-0.4,2.8-1.3,3.6C39.2,11.6,38,12,36.4,12c-0.3,0-0.5,0-0.8-0.1c-0.3,0-0.5-0.1-0.7-0.1v3.5c-0.1,0-0.3,0-0.5,0.1
			c-0.2,0-0.3,0-0.4,0c-0.1,0-0.3,0-0.4,0c-0.2,0-0.3,0-0.4-0.1V2.8H33z M34.8,10.3c0.2,0.1,0.5,0.1,0.7,0.2c0.2,0,0.6,0.1,0.9,0.1
			c0.4,0,0.8-0.1,1.2-0.2s0.7-0.3,0.9-0.6c0.3-0.3,0.5-0.6,0.6-1.1c0.2-0.4,0.2-0.9,0.2-1.5c0-0.9-0.2-1.7-0.5-2.2
			c-0.4-0.6-0.9-0.8-1.8-0.8c-0.3,0-0.6,0.1-0.9,0.2c-0.3,0.1-0.5,0.3-0.7,0.5S35,5.4,34.9,5.7s-0.2,0.7-0.2,1.2L34.8,10.3
			L34.8,10.3z"/>
		<path id="XMLID_458_" class="st0" d="M48.9,11.8c-0.3,0.1-0.5,0.1-0.8,0.1s-0.6,0.1-1,0.1c-0.6,0-1.2-0.1-1.8-0.2
			s-1.1-0.4-1.5-0.7c-0.4-0.4-0.8-0.8-1-1.4c-0.3-0.6-0.4-1.3-0.4-2.1c0-0.7,0.1-1.4,0.4-2C43,5,43.4,4.5,43.8,4
			c0.4-0.4,1-0.8,1.6-1s1.3-0.4,2.1-0.4c0.7,0,1.3,0,1.7,0.1c0.5,0.1,1,0.2,1.5,0.3v12.4c-0.1,0-0.3,0-0.4,0.1c-0.2,0-0.3,0-0.4,0
			c-0.1,0-0.3,0-0.4,0c-0.2,0-0.3,0-0.4-0.1v-3.6H48.9z M48.9,4.2c-0.2,0-0.3-0.1-0.4-0.1c-0.1,0-0.2,0-0.3,0s-0.2,0-0.3,0
			s-0.2,0-0.4,0c-0.5,0-1,0.1-1.4,0.3c-0.4,0.2-0.7,0.4-1,0.7c-0.3,0.3-0.5,0.7-0.6,1.1s-0.2,0.9-0.2,1.4s0.1,1,0.2,1.4
			c0.1,0.4,0.3,0.7,0.6,0.9c0.3,0.2,0.6,0.4,0.9,0.5c0.4,0.1,0.7,0.2,1.2,0.2c0.3,0,0.6,0,0.9-0.1c0.3,0,0.5-0.1,0.8-0.2V4.2z"/>
		<path id="XMLID_456_" class="st0" d="M52,2.7c0.1,0,0.3,0,0.5-0.1c0.2,0,0.3,0,0.4,0c0.1,0,0.3,0,0.5,0s0.3,0,0.5,0.1v4.9
			c0,0.6,0.1,1,0.2,1.4c0.1,0.4,0.3,0.7,0.5,0.9c0.2,0.2,0.5,0.4,0.8,0.4c0.3,0.1,0.7,0.1,1.1,0.1c0.6,0,1.1-0.1,1.6-0.2V2.6
			c0.1,0,0.3,0,0.4-0.1c0.2,0,0.3,0,0.4,0c0.1,0,0.3,0,0.4,0c0.2,0,0.3,0,0.4,0.1v8.8c-0.4,0.1-0.9,0.2-1.5,0.3
			c-0.6,0.1-1.2,0.2-1.8,0.2s-1.2-0.1-1.7-0.1c-0.5-0.1-1-0.3-1.4-0.6c-0.4-0.3-0.7-0.7-0.9-1.3C52.1,9.4,52,8.7,52,7.8V2.7z"/>
		<path id="XMLID_453_" class="st0" d="M66.4,5.8c0-0.7-0.2-1.2-0.5-1.4c-0.4-0.3-0.9-0.4-1.6-0.4c-0.4,0-0.8,0-1.2,0.1
			S62.4,4.3,62,4.4c-0.2-0.4-0.3-0.9-0.3-1.4c0.4-0.1,0.9-0.2,1.4-0.3c0.5-0.1,1-0.1,1.4-0.1c1.2,0,2.1,0.3,2.8,0.8
			c0.6,0.5,0.9,1.4,0.9,2.6v5.7c-0.4,0.1-0.9,0.2-1.5,0.3c-0.6,0.1-1.2,0.1-1.9,0.1c-0.6,0-1.1-0.1-1.6-0.2s-0.9-0.3-1.2-0.5
			s-0.6-0.5-0.8-0.9s-0.3-0.8-0.3-1.3s0.1-0.9,0.3-1.3s0.5-0.7,0.9-1s0.8-0.4,1.3-0.6c0.5-0.1,1-0.2,1.5-0.2c0.4,0,0.7,0,1,0
			c0.2,0,0.5,0,0.6,0.1V5.8H66.4z M66.4,7.6c-0.2,0-0.4,0-0.7-0.1c-0.3,0-0.5,0-0.7,0c-0.8,0-1.3,0.1-1.7,0.4s-0.6,0.7-0.6,1.2
			c0,0.4,0.1,0.6,0.2,0.8c0.1,0.2,0.3,0.4,0.5,0.5s0.4,0.2,0.7,0.2c0.2,0,0.5,0,0.7,0c0.3,0,0.6,0,0.9,0s0.6-0.1,0.8-0.1V7.6H66.4z"
			/>
		<path id="XMLID_451_" class="st0" d="M69.5,10.2c0.3,0.1,0.7,0.2,1.1,0.3c0.4,0.1,0.8,0.1,1.2,0.1c0.3,0,0.5,0,0.8-0.1
			s0.5-0.1,0.7-0.3c0.2-0.1,0.3-0.3,0.5-0.4C73.9,9.6,74,9.4,74,9.2s0-0.4-0.1-0.6s-0.2-0.3-0.4-0.4C73.3,8.1,73.2,8,73,7.9
			c-0.2-0.1-0.4-0.1-0.6-0.2l-0.6-0.2c-0.8-0.3-1.3-0.6-1.7-1c-0.4-0.4-0.5-0.8-0.5-1.4c0-0.8,0.3-1.4,0.9-1.9s1.5-0.7,2.6-0.7
			c0.5,0,0.9,0,1.4,0.1s0.9,0.2,1.2,0.3c0,0.2-0.1,0.5-0.1,0.7c-0.1,0.2-0.1,0.5-0.2,0.7c-0.3-0.1-0.6-0.2-1-0.3C74,4,73.6,4,73.2,4
			c-0.4,0-0.8,0.1-1.2,0.2c-0.3,0.2-0.5,0.4-0.5,0.8c0,0.2,0,0.4,0.1,0.5s0.2,0.3,0.3,0.4c0.1,0.1,0.3,0.2,0.5,0.3
			c0.2,0.1,0.4,0.1,0.6,0.2l0.8,0.3c0.3,0.1,0.6,0.2,0.8,0.3c0.3,0.1,0.5,0.3,0.7,0.5s0.3,0.4,0.5,0.7c0.1,0.3,0.2,0.6,0.2,1
			s-0.1,0.8-0.3,1.2c-0.2,0.4-0.4,0.7-0.8,0.9c-0.3,0.3-0.7,0.4-1.2,0.6c-0.5,0.1-1,0.2-1.6,0.2s-1.1,0-1.5-0.1s-0.8-0.2-1.2-0.3
			c0-0.2,0.1-0.5,0.2-0.7C69.4,10.7,69.4,10.4,69.5,10.2z"/>
		<path id="XMLID_447_" class="st0" d="M77.8,4.2h-1.4L76.3,4l3.1-3.4h0.1v2.2H82c0,0.2,0.1,0.4,0.1,0.7c0,0.1,0,0.3,0,0.4
			c0,0.1,0,0.2-0.1,0.4h-2.4v4.1c0,0.5,0,0.9,0.1,1.2c0,0.3,0.1,0.5,0.2,0.7s0.2,0.3,0.4,0.3c0.2,0.1,0.4,0.1,0.7,0.1
			c0.2,0,0.4,0,0.6,0s0.3-0.1,0.5-0.1c0.1,0.2,0.1,0.5,0.2,0.7c0,0.2,0,0.5,0,0.7c-0.2,0.1-0.5,0.1-0.8,0.1s-0.6,0-0.9,0
			c-0.9,0-1.6-0.2-2.1-0.6s-0.7-1.1-0.7-2L77.8,4.2L77.8,4.2z"/>
	</g>
</g>
</svg>
